%YAML 1.1
%TAG !u! tag:unity3d.com,2011:
--- !u!114 &11400000
MonoBehaviour:
  m_ObjectHideFlags: 0
  m_CorrespondingSourceObject: {fileID: 0}
  m_PrefabInstance: {fileID: 0}
  m_PrefabAsset: {fileID: 0}
  m_GameObject: {fileID: 0}
  m_Enabled: 1
  m_EditorHideFlags: 0
  m_Script: {fileID: 11500000, guid: 6b4d3cecabdc0d14caf17e26c248845c, type: 3}
  m_Name: DataSpawn_ByTime 0
  m_EditorClassIdentifier: 
  quantityPortals: 10
  timerSpawn: 10
  quantityEnemySpawnForTime: 20
