%YAML 1.1
%TAG !u! tag:unity3d.com,2011:
--- !u!74 &7400000
AnimationClip:
  m_ObjectHideFlags: 0
  m_CorrespondingSourceObject: {fileID: 0}
  m_PrefabInstance: {fileID: 0}
  m_PrefabAsset: {fileID: 0}
  m_Name: HeroDownAttackMove
  serializedVersion: 6
  m_Legacy: 0
  m_Compressed: 0
  m_UseHighQualityCurve: 1
  m_RotationCurves: []
  m_CompressedRotationCurves: []
  m_EulerCurves: []
  m_PositionCurves: []
  m_ScaleCurves: []
  m_FloatCurves: []
  m_PPtrCurves:
  - curve:
    - time: 0
      value: {fileID: 21300000, guid: 7064a7293635ac742a28885f8c9a7577, type: 3}
    - time: 0.11666667
      value: {fileID: 21300000, guid: b9e076d73ee39544aa4b6447174c73ed, type: 3}
    - time: 0.23333333
      value: {fileID: 21300000, guid: 28ff5d21291e9a84abf5530cfc715a9b, type: 3}
    - time: 0.35
      value: {fileID: 21300000, guid: e14beeaba1112264aaa0a4ea5e8df9b1, type: 3}
    - time: 0.46666667
      value: {fileID: 21300000, guid: 9200505d298226445a54993fe91f36b4, type: 3}
    - time: 0.5833333
      value: {fileID: 21300000, guid: 87f08c4d23729c54dbfbba7923a75553, type: 3}
    - time: 0.7
      value: {fileID: 21300000, guid: cb31cf13431f853419a76da030c1c365, type: 3}
    - time: 0.81666666
      value: {fileID: 21300000, guid: f4f306488c63e8a4a9f40764be897d59, type: 3}
    - time: 0.9166667
      value: {fileID: 21300000, guid: f4f306488c63e8a4a9f40764be897d59, type: 3}
    attribute: m_Sprite
    path: 
    classID: 212
    script: {fileID: 0}
  m_SampleRate: 60
  m_WrapMode: 0
  m_Bounds:
    m_Center: {x: 0, y: 0, z: 0}
    m_Extent: {x: 0, y: 0, z: 0}
  m_ClipBindingConstant:
    genericBindings:
    - serializedVersion: 2
      path: 0
      attribute: 0
      script: {fileID: 0}
      typeID: 212
      customType: 23
      isPPtrCurve: 1
    pptrCurveMapping:
    - {fileID: 21300000, guid: 7064a7293635ac742a28885f8c9a7577, type: 3}
    - {fileID: 21300000, guid: b9e076d73ee39544aa4b6447174c73ed, type: 3}
    - {fileID: 21300000, guid: 28ff5d21291e9a84abf5530cfc715a9b, type: 3}
    - {fileID: 21300000, guid: e14beeaba1112264aaa0a4ea5e8df9b1, type: 3}
    - {fileID: 21300000, guid: 9200505d298226445a54993fe91f36b4, type: 3}
    - {fileID: 21300000, guid: 87f08c4d23729c54dbfbba7923a75553, type: 3}
    - {fileID: 21300000, guid: cb31cf13431f853419a76da030c1c365, type: 3}
    - {fileID: 21300000, guid: f4f306488c63e8a4a9f40764be897d59, type: 3}
    - {fileID: 21300000, guid: f4f306488c63e8a4a9f40764be897d59, type: 3}
  m_AnimationClipSettings:
    serializedVersion: 2
    m_AdditiveReferencePoseClip: {fileID: 0}
    m_AdditiveReferencePoseTime: 0
    m_StartTime: 0
    m_StopTime: 0.93333334
    m_OrientationOffsetY: 0
    m_Level: 0
    m_CycleOffset: 0
    m_HasAdditiveReferencePose: 0
    m_LoopTime: 1
    m_LoopBlend: 0
    m_LoopBlendOrientation: 0
    m_LoopBlendPositionY: 0
    m_LoopBlendPositionXZ: 0
    m_KeepOriginalOrientation: 0
    m_KeepOriginalPositionY: 1
    m_KeepOriginalPositionXZ: 0
    m_HeightFromFeet: 0
    m_Mirror: 0
  m_EditorCurves: []
  m_EulerEditorCurves: []
  m_HasGenericRootTransform: 0
  m_HasMotionFloatCurves: 0
  m_Events: []
