%YAML 1.1
%TAG !u! tag:unity3d.com,2011:
--- !u!114 &11400000
MonoBehaviour:
  m_ObjectHideFlags: 0
  m_CorrespondingSourceObject: {fileID: 0}
  m_PrefabInstance: {fileID: 0}
  m_PrefabAsset: {fileID: 0}
  m_GameObject: {fileID: 0}
  m_Enabled: 1
  m_EditorHideFlags: 0
  m_Script: {fileID: 11500000, guid: 9d18608ef8e51d04aae6d3230fa1dcb5, type: 3}
  m_Name: StandartWeaponEnemy
  m_EditorClassIdentifier: 
  spriteWeapon: {fileID: 21300000, guid: 2ff75f99fa409194fa84abe2801be096, type: 3}
  index: 0
  reloadTime: 10
  shotTime: 0.5
  damage: 10
  bullet: {fileID: 8831404216389533386, guid: 64c4a4b1b6072824da7361079e1a94d8, type: 3}
  countBullet: 5
  quantityBullets: 5
  timerLifeBullet: 3
  speedBullet: 5
  forseBullet: 0
  forsePushEnemy: 1
