%YAML 1.1
%TAG !u! tag:unity3d.com,2011:
--- !u!114 &11400000
MonoBehaviour:
  m_ObjectHideFlags: 0
  m_CorrespondingSourceObject: {fileID: 0}
  m_PrefabInstance: {fileID: 0}
  m_PrefabAsset: {fileID: 0}
  m_GameObject: {fileID: 0}
  m_Enabled: 1
  m_EditorHideFlags: 0
  m_Script: {fileID: 11500000, guid: bcb3d2f5c4a22ba4b8629f18012dde12, type: 3}
  m_Name: DataWave 0
  m_EditorClassIdentifier: 
  enemysData:
  - {fileID: 11400000, guid: 03f9509d44e7ea04a9ed0ae15f416937, type: 2}
  - {fileID: 11400000, guid: 960bed62590e5064dac15279c9409491, type: 2}
  - {fileID: 11400000, guid: 3300970882ebdef4f91f521851c48773, type: 2}
  bonusData: {fileID: 0}
  spawnData: {fileID: 11400000, guid: 28553011caebed249aa205b3eccaccb3, type: 2}
